…
### Accessing posterior samples

``` r
extract_posterior_samples(fit_GCM_model)
#> # A tibble: 8,000 × 19
#>    iteration `m_pred[1]` `m_pred[2]` `m_pred[3]` `m_pred[4]` `m_pred[5]`
#>        <int>       <dbl>       <dbl>       <dbl>       <dbl>       <dbl>
#>  1         1         150          26          11         106          23
#>  2         2         118          30           6          90          30
#>  3         3         121          31           8         163          18
#>  4         4         146          15          11         125          23
#>  5         5         129          24           5         131          17
#>  6         6         110          18          16         146          24
#>  7         7         120          26           6         131          33
#>  8         8         108          18           5         104          30
#>  9         9         122          26          14         139          27
#> 10        10         131          16          16         112          28
#> # ℹ 7,990 more rows
#> # ℹ 13 more variables: `m_pred[6]` <dbl>, `log10_mu[1]` <dbl>,
#> #   `log10_mu[2]` <dbl>, `log10_mu[3]` <dbl>, `log10_mu[4]` <dbl>,
#> #   `log10_mu[5]` <dbl>, `log10_mu[6]` <dbl>, log10_mean <dbl>,
#> #   log10_sigma <dbl>, log10_mean_prior <dbl>, log10_sigma_prior <dbl>,
#> #   log10_mu_prior <dbl>, chain_id <int>
```
…
